simple
55 30 85 11 5 55 5 25 30 + * + / - - 6 8 / 0 2 / 1 1 / 4 5 / 5 0 / 8 3 / 9 4 0 1 8 9 
100 4 25 0 15 15 100 60 40 / + - - * + 6 1 / 1 0 / 3 5 / 4 6 / 5 4 / 6 2 / 8 4 1 5 6 8 
36 18 2 12 2 14 48 20 28 / + - + + * 7 2 / 0 8 / 1 0 / 4 4 / 5 6 / 6 3 / 8 1 / 9 3 1 5 9 
3 32 35 21 3 7 63 35 28 + / - * + - 7 2 / 1 7 / 3 5 / 4 3 / 5 1 / 6 8 / 8 6 / 9 3 1 3 9 
62 30 32 45 3 15 107 90 17 - / - + * - 9 5 / 0 6 / 1 0 / 2 2 / 3 4 / 4 3 / 5 7 / 7 9 / 8 1 / 9 3 0 2 7 
27 13 40 9 2 11 3 26 29 + + + / * - 8 6 / 0 0 / 1 2 / 2 4 / 4 7 / 5 9 / 6 3 / 7 1 / 9 3 1 2 6 
20 0 20 6 3 2 120 3 40 - / / * + * 6 1 / 1 6 / 2 2 / 3 4 / 6 3 / 8 0 / 9 3 1 3 6 
12 4 3 33 4 132 396 0 396 / * + * - * 7 9 / 0 1 / 1 2 / 3 3 / 5 0 / 7 4 / 8 6 / 9 3 0 1 3 
2 44 88 32 40 72 64 4 16 * + / * - - 8 2 / 0 8 / 1 7 / 2 1 / 3 6 / 5 0 / 6 4 / 8 3 / 9 3 0 3 6 
94 86 180 3 4 12 97 82 15 + * - + - / 10 3 / 0 5 / 1 2 / 2 6 / 3 1 / 4 8 / 5 7 / 6 0 / 7 9 / 8 4 / 9 3 2 6 7 
123 24 99 13 7 91 136 17 8 - * / + - - 8 7 / 0 1 / 1 6 / 3 4 / 4 3 / 5 8 / 7 2 / 8 9 / 9 2 1 3 
48 3 16 16 3 48 64 0 64 / * + + - + 6 8 / 0 4 / 1 6 / 2 3 / 3 1 / 4 0 / 8 2 1 4 
56 7 8 14 11 3 42 18 24 / - - - + * 8 4 / 2 2 / 3 5 / 4 6 / 5 3 / 6 8 / 7 7 / 8 1 / 9 2 2 8 
54 2 27 6 9 15 60 18 42 / + - + * + 9 2 / 0 0 / 1 5 / 2 7 / 4 6 / 5 1 / 6 8 / 7 9 / 8 4 / 9 2 0 6 
72 4 18 59 55 4 131 59 72 / - - + + * 8 9 / 0 3 / 1 5 / 2 7 / 4 2 / 5 8 / 6 1 / 7 4 / 8 2 7 8 
119 31 88 7 5 35 17 36 53 - * + / + - 7 7 / 0 9 / 3 8 / 4 5 / 5 6 / 6 1 / 7 3 / 8 1 7 
2 97 194 2 96 192 1 1 2 * * + / - - 6 2 / 0 1 / 1 9 / 4 4 / 6 7 / 7 6 / 8 1 4 
82 75 7 3 25 75 85 3 82 - * - + / + 5 8 / 1 5 / 2 7 / 3 3 / 5 2 / 6 1 1 
12 6 2 12 2 10 24 4 20 / - - + - * 5 0 / 0 6 / 4 2 / 5 1 / 6 4 / 7 1 0 
84 52 136 2 26 28 82 2 164 + + * - / + 7 3 / 0 2 / 1 8 / 2 6 / 3 4 / 4 1 / 6 5 / 7 1 2 
56 6 336 32 10 42 24 16 8 * + - - + / 8 4 / 0 0 / 1 5 / 2 8 / 3 2 / 5 3 / 7 6 / 8 1 / 9 0 
26 90 116 2 45 90 13 2 26 + * * / / - 8 2 / 0 9 / 1 5 / 3 4 / 4 1 / 5 0 / 6 6 / 8 3 / 9 1 3 
78 34 44 3 8 24 26 42 68 - * + / + + 6 7 / 1 3 / 2 6 / 4 2 / 5 4 / 6 8 / 7 1 5 
2 144 288 0 8 8 2 18 36 * + * - / / 7 8 / 0 0 / 1 1 / 2 2 / 3 4 / 5 3 / 7 6 / 9 0 
6 8 48 52 26 2 58 34 24 * / - + + / 6 5 / 0 3 / 2 6 / 4 8 / 5 4 / 7 2 / 8 0 
53 80 133 8 10 80 61 8 53 + * - + / - 6 8 / 0 3 / 1 1 / 5 6 / 6 0 / 8 5 / 9 1 9 
67 18 85 36 2 18 31 36 67 + / + - * - 7 8 / 0 6 / 1 5 / 4 3 / 5 2 / 6 1 / 7 7 / 8 1 4 
72 8 80 64 4 16 8 12 96 + / * - + + 8 0 / 0 8 / 2 9 / 3 7 / 5 6 / 6 2 / 7 4 / 8 1 / 9 1 7 
64 44 20 45 11 56 19 4 76 - + * - / + 8 1 / 0 2 / 1 7 / 2 9 / 4 6 / 5 4 / 7 0 / 8 5 / 9 0 
24 22 46 6 20 26 144 2 72 + + / * - + 6 6 / 0 1 / 1 2 / 3 7 / 4 4 / 6 0 / 9 0 
3 56 168 39 17 56 42 39 3 * + - + - / 9 6 / 0 7 / 1 5 / 2 2 / 3 4 / 4 8 / 5 1 / 7 9 / 8 3 / 9 1 1 
2 38 40 90 52 38 180 90 2 + - / * + - 8 9 / 0 4 / 1 8 / 2 2 / 3 3 / 6 1 / 7 5 / 8 0 / 9 1 8 
4 8 12 18 6 3 72 2 36 + / / * - * 7 3 / 0 6 / 1 8 / 2 7 / 3 1 / 4 4 / 6 2 / 8 0 
72 28 100 42 2 84 30 14 16 + * - - / - 8 0 / 1 3 / 2 2 / 3 1 / 4 4 / 5 8 / 7 7 / 8 6 / 9 2 2 9 
102 6 96 10 4 40 112 2 56 - * / + - - 7 0 / 0 1 / 1 2 / 2 4 / 3 5 / 6 9 / 7 6 / 9 0 
22 52 74 2 2 4 44 26 70 + * + * / - 6 6 / 1 7 / 3 2 / 6 0 / 7 5 / 8 4 / 9 0 
48 5 43 30 3 10 18 15 33 - / + - * - 6 4 / 0 3 / 1 1 / 3 5 / 5 8 / 6 0 / 9 0 
146 2 144 2 0 2 73 2 146 - + * / - + 7 7 / 0 1 / 1 4 / 2 6 / 5 2 / 7 0 / 8 3 / 9 0 
2 21 42 89 68 21 178 89 2 * - / * + / 7 6 / 3 9 / 4 7 / 5 4 / 6 8 / 7 1 / 8 2 / 9 1 8 
4 2 6 78 76 2 312 78 4 + - / * + - 7 4 / 1 2 / 2 1 / 3 3 / 4 6 / 5 7 / 6 8 / 8 1 4 
78 39 2 2 23 46 76 16 92 / * + - - * 8 6 / 2 8 / 3 3 / 4 4 / 5 2 / 6 9 / 7 1 / 8 7 / 9 1 2 
14 7 21 77 11 7 91 77 14 + / - + * - 5 2 / 0 7 / 3 1 / 6 4 / 7 9 / 8 1 8 
44 11 33 9 2 11 396 9 44 - + / * - + 6 9 / 2 6 / 4 4 / 6 3 / 7 1 / 8 2 / 9 0 
89 37 52 74 2 37 15 74 89 - / + - * + 8 8 / 0 1 / 1 2 / 2 3 / 3 7 / 4 4 / 5 9 / 7 5 / 8 1 0 
96 5 101 2 16 32 48 21 69 + * + / + - 9 0 / 0 6 / 1 3 / 3 2 / 4 5 / 5 9 / 6 8 / 7 4 / 8 1 / 9 1 0 
28 2 14 10 2 20 38 4 34 / * - + * + 6 3 / 0 8 / 1 2 / 3 1 / 6 4 / 8 0 / 9 0 
42 9 378 7 6 42 6 3 9 * * + / - / 7 8 / 0 3 / 1 4 / 3 9 / 4 2 / 7 6 / 8 7 / 9 1 3 
2 62 64 32 0 32 64 62 2 + + - * - / 5 2 / 0 6 / 1 4 / 4 0 / 5 3 / 9 0 
3 9 27 45 36 9 135 45 3 * - / * + / 8 5 / 1 3 / 3 7 / 4 6 / 5 2 / 6 9 / 7 1 / 8 4 / 9 1 9 
64 24 88 60 3 20 4 27 108 + / * - + + 8 7 / 0 3 / 2 6 / 3 2 / 5 0 / 6 1 / 7 8 / 8 4 / 9 1 5 
88 10 78 72 2 70 160 20 8 - - / + * - 6 8 / 2 6 / 3 7 / 4 2 / 6 0 / 7 1 / 9 1 9 
3 10 30 15 2 17 18 5 13 * + - + / - 7 0 / 0 7 / 1 5 / 2 3 / 3 2 / 4 1 / 7 8 / 9 0 
105 3 35 67 16 51 38 48 86 / - + - * + 8 8 / 0 7 / 1 1 / 2 3 / 3 0 / 4 5 / 5 4 / 6 6 / 9 0 
5 13 18 67 54 13 335 67 5 + - / * + - 7 4 / 1 1 / 2 3 / 3 5 / 5 7 / 6 8 / 7 6 / 9 0 
108 3 36 43 7 50 65 21 86 / + + - * + 9 0 / 1 6 / 2 5 / 3 3 / 4 4 / 5 7 / 6 1 / 7 8 / 8 2 / 9 0 
60 44 16 48 24 2 12 20 32 - / + - - * 7 6 / 0 4 / 1 0 / 2 2 / 3 8 / 6 3 / 8 1 / 9 1 0 
36 10 46 24 4 6 12 40 52 + / + - * + 7 5 / 0 0 / 1 3 / 3 1 / 4 6 / 6 2 / 8 4 / 9 0 
10 39 390 70 31 39 80 8 10 * - / + - / 6 0 / 2 9 / 3 8 / 4 1 / 5 7 / 6 3 / 7 1 4 
93 60 153 68 15 53 25 4 100 + - * - / - 9 4 / 0 6 / 1 5 / 2 1 / 3 9 / 4 3 / 5 2 / 6 0 / 7 8 / 8 0 
18 6 108 3 3 6 54 3 18 * + / * - / 7 5 / 0 0 / 1 8 / 2 1 / 4 4 / 7 6 / 8 3 / 9 0 
92 18 110 23 3 26 4 21 84 + + * / + - 8 6 / 1 2 / 2 8 / 3 3 / 4 4 / 5 1 / 6 9 / 7 0 / 8 1 3 
3 17 51 57 40 17 171 57 3 * - / * + / 6 1 / 0 7 / 2 5 / 3 3 / 5 4 / 7 0 / 8 1 8 
63 3 66 21 7 3 3 21 63 + / * / * - 5 1 / 0 2 / 1 7 / 2 3 / 7 6 / 8 0 
68 17 4 28 7 4 40 24 16 / / - - + * 7 6 / 0 0 / 1 4 / 2 1 / 4 7 / 7 2 / 8 8 / 9 0 
45 9 5 18 3 6 27 3 30 / / + - / * 10 8 / 0 2 / 1 4 / 2 7 / 3 1 / 4 6 / 5 0 / 6 3 / 7 9 / 8 5 / 9 1 6 
78 78 156 26 13 2 52 6 312 + / * - / * 7 3 / 1 7 / 2 2 / 4 8 / 5 6 / 6 5 / 8 1 / 9 1 8 
45 4 180 21 15 36 24 19 5 * + - - + / 9 0 / 0 8 / 1 3 / 2 2 / 3 9 / 4 1 / 5 5 / 6 4 / 7 6 / 9 0 
78 26 3 24 2 26 102 24 78 / + - + - * 8 6 / 0 2 / 1 1 / 3 3 / 4 7 / 5 0 / 6 8 / 7 4 / 9 0 
42 20 22 8 6 2 336 14 24 - - / * - + 7 1 / 1 3 / 3 6 / 4 0 / 5 4 / 6 8 / 8 2 / 9 1 6 
38 20 58 36 6 6 2 26 52 + / * - + - 6 6 / 2 8 / 3 5 / 4 3 / 5 0 / 6 2 / 7 0 
24 10 240 5 2 10 19 5 24 * * + - / / 6 1 / 0 5 / 1 9 / 2 2 / 3 4 / 7 0 / 9 1 2 
60 3 63 24 21 3 84 63 21 + - - + * / 7 1 / 0 0 / 3 8 / 4 3 / 5 4 / 6 6 / 7 2 / 8 1 6 
56 6 336 32 10 42 24 16 8 * + - - + / 8 4 / 0 0 / 1 5 / 2 8 / 3 2 / 5 3 / 7 6 / 8 1 / 9 0 
26 90 116 2 45 90 13 2 26 + * * / / - 8 2 / 0 9 / 1 5 / 3 4 / 4 1 / 5 0 / 6 6 / 8 3 / 9 1 3 
78 34 44 3 8 24 26 42 68 - * + / + + 6 7 / 1 3 / 2 6 / 4 2 / 5 4 / 6 8 / 7 1 5 
2 144 288 0 8 8 2 18 36 * + * - / / 7 8 / 0 0 / 1 1 / 2 2 / 3 4 / 5 3 / 7 6 / 9 0 
6 8 48 52 26 2 58 34 24 * / - + + / 6 5 / 0 3 / 2 6 / 4 8 / 5 4 / 7 2 / 8 0 
53 80 133 8 10 80 61 8 53 + * - + / - 6 8 / 0 3 / 1 1 / 5 6 / 6 0 / 8 5 / 9 1 9 
67 18 85 36 2 18 31 36 67 + / + - * - 7 8 / 0 6 / 1 5 / 4 3 / 5 2 / 6 1 / 7 7 / 8 1 4 
72 8 80 64 4 16 8 12 96 + / * - + + 8 0 / 0 8 / 2 9 / 3 7 / 5 6 / 6 2 / 7 4 / 8 1 / 9 1 7 
64 44 20 45 11 56 19 4 76 - + * - / + 8 1 / 0 2 / 1 7 / 2 9 / 4 6 / 5 4 / 7 0 / 8 5 / 9 0 
24 22 46 6 20 26 144 2 72 + + / * - + 6 6 / 0 1 / 1 2 / 3 7 / 4 4 / 6 0 / 9 0 
3 56 168 39 17 56 42 39 3 * + - + - / 9 6 / 0 7 / 1 5 / 2 2 / 3 4 / 4 8 / 5 1 / 7 9 / 8 3 / 9 1 1 
2 38 40 90 52 38 180 90 2 + - / * + - 8 9 / 0 4 / 1 8 / 2 2 / 3 3 / 6 1 / 7 5 / 8 0 / 9 1 8 
4 8 12 18 6 3 72 2 36 + / / * - * 7 3 / 0 6 / 1 8 / 2 7 / 3 1 / 4 4 / 6 2 / 8 0 
2 2 0 168 56 3 336 112 3 - / / * * + 7 2 / 0 1 / 1 3 / 2 0 / 3 6 / 4 8 / 8 5 / 9 0 
86 91 177 6 13 78 92 7 99 + * + + / - 7 2 / 2 8 / 3 3 / 4 6 / 5 7 / 6 9 / 8 1 / 9 0 
3 68 204 7 61 68 21 7 3 * + / * - / 8 8 / 0 0 / 1 3 / 2 1 / 3 2 / 5 4 / 6 6 / 7 7 / 8 1 1 
48 16 3 8 0 8 384 16 24 / + / * - * 7 6 / 0 3 / 1 0 / 3 8 / 4 1 / 6 4 / 7 2 / 8 0 
64 2 32 24 2 12 40 4 44 / / + - * + 6 6 / 2 1 / 4 4 / 6 0 / 7 3 / 8 2 / 9 1 7 
108 27 81 54 2 27 162 54 3 - / / + * / 9 1 / 0 8 / 1 4 / 2 2 / 3 3 / 4 6 / 6 7 / 7 0 / 8 5 / 9 1 1 
29 76 105 2 38 76 27 2 29 + * + - / - 9 8 / 0 6 / 1 2 / 2 0 / 3 9 / 4 5 / 6 3 / 7 7 / 8 1 / 9 0 
34 27 7 6 21 27 204 6 34 - + / * - + 7 7 / 1 3 / 2 0 / 3 4 / 4 1 / 5 2 / 8 6 / 9 1 2 
84 38 46 3 35 38 252 3 84 - + / * - + 6 3 / 0 2 / 5 4 / 6 8 / 7 6 / 8 5 / 9 0 
75 30 105 3 25 75 25 5 30 + * + / - - 6 1 / 0 2 / 1 5 / 5 3 / 6 0 / 7 7 / 9 0 
3 54 57 9 6 54 27 9 3 + * / * / - 7 9 / 0 3 / 1 7 / 3 2 / 4 4 / 6 6 / 7 5 / 9 1 7 
44 9 396 22 9 198 2 0 2 * * + / - / 8 1 / 1 3 / 2 2 / 3 8 / 4 4 / 5 6 / 6 0 / 8 9 / 9 1 2 
7 18 126 86 68 18 93 86 7 * - - + + / 7 9 / 0 1 / 1 3 / 2 2 / 4 8 / 6 7 / 7 6 / 9 1 4 
7 13 91 17 4 13 24 17 7 * - - + + / 6 4 / 0 2 / 1 3 / 3 1 / 4 9 / 8 7 / 9 1 3 
34 44 78 11 4 44 23 11 34 + * + - / - 6 4 / 0 1 / 2 2 / 4 3 / 5 8 / 6 7 / 7 0 
39 8 47 48 2 24 87 16 71 + / - + * + 8 7 / 0 9 / 2 3 / 3 2 / 5 6 / 6 4 / 7 8 / 8 1 / 9 1 0 
32 8 256 76 2 152 108 4 104 * * - + / - 9 1 / 0 8 / 1 2 / 2 3 / 3 4 / 4 7 / 5 6 / 7 5 / 8 0 / 9 1 8 
14 7 2 4 3 12 10 4 14 / * + - - + 6 1 / 2 7 / 3 0 / 4 2 / 6 4 / 7 3 / 8 0 
93 90 3 38 18 20 55 5 60 - - + - / * 8 5 / 0 6 / 1 0 / 2 8 / 3 3 / 4 1 / 5 9 / 6 2 / 7 1 2 
58 10 68 55 11 5 3 21 63 + / * - + - 7 3 / 0 5 / 1 1 / 4 0 / 5 2 / 6 8 / 7 6 / 8 0 
23 75 98 4 3 7 92 78 14 + + - * + / 8 8 / 0 9 / 1 2 / 2 7 / 3 3 / 5 4 / 6 1 / 7 5 / 8 1 2 
3 36 39 17 9 8 51 4 47 + - - * / + 8 7 / 0 1 / 1 6 / 2 9 / 3 4 / 4 3 / 7 8 / 8 5 / 9 0 
75 61 14 3 2 6 25 59 84 - * + / - * 9 7 / 0 2 / 1 8 / 2 6 / 3 1 / 4 9 / 5 3 / 6 5 / 7 4 / 9 1 4 
25 5 20 3 6 18 22 11 2 - * / - + - 7 1 / 0 3 / 1 2 / 2 6 / 6 0 / 7 8 / 8 5 / 9 0 
32 8 24 8 2 16 4 10 40 - * * / + + 7 1 / 0 8 / 1 2 / 5 0 / 6 4 / 7 3 / 8 6 / 9 1 0 
25 7 175 5 14 70 5 21 105 * * * / + - 6 2 / 0 7 / 3 5 / 4 4 / 5 1 / 6 0 / 9 1 3 
28 40 68 12 5 60 16 8 8 + * - - / - 7 5 / 0 6 / 1 4 / 2 1 / 4 2 / 7 8 / 8 0 / 9 0 
41 3 123 41 38 3 82 41 41 * - - + + / 5 8 / 0 1 / 2 2 / 7 4 / 8 3 / 9 1 0 
51 5 56 10 2 5 41 10 51 + / + - * - 6 6 / 0 1 / 2 4 / 3 0 / 4 2 / 6 5 / 7 1 3 
18 10 180 22 2 20 40 5 200 * - * + / + 6 0 / 0 4 / 3 8 / 6 5 / 7 2 / 8 1 / 9 0 
24 14 10 14 0 14 336 14 24 - + / * + + 6 1 / 0 2 / 2 3 / 4 6 / 5 0 / 8 4 / 9 0 
2 3 5 16 4 4 32 12 20 + / - * * * 7 0 / 1 6 / 2 2 / 3 1 / 5 4 / 7 5 / 8 3 / 9 0 
14 11 3 21 3 7 294 14 21 - / / * + * 6 4 / 1 7 / 2 9 / 3 3 / 5 1 / 7 2 / 9 1 1 
41 25 66 5 5 25 36 5 41 + * + - / - 6 2 / 0 4 / 1 5 / 3 6 / 4 3 / 6 1 / 8 1 6 
2 9 18 10 7 3 12 2 6 * - / + - / 8 9 / 0 3 / 1 1 / 2 8 / 3 6 / 6 2 / 7 7 / 8 0 / 9 0 
2 112 224 7 16 112 9 7 2 * * - + / / 6 1 / 0 9 / 1 2 / 5 4 / 6 6 / 7 7 / 9 1 6 
74 65 9 30 6 5 104 59 45 - / - + - * 8 6 / 1 0 / 2 7 / 3 3 / 4 4 / 5 9 / 6 5 / 7 1 / 9 1 2 
2 67 134 51 3 17 53 64 117 * / + + - - 7 5 / 0 2 / 1 1 / 2 3 / 4 4 / 5 7 / 7 6 / 9 0 
24 94 118 12 82 94 2 12 24 + + * / - - 5 8 / 2 1 / 3 4 / 4 9 / 5 2 / 8 1 2 
33 3 99 6 3 2 198 0 198 * / + * - * 7 9 / 0 2 / 3 6 / 4 0 / 5 1 / 6 3 / 8 8 / 9 0 
33 4 37 27 2 25 6 2 12 + - * - / - 7 3 / 1 6 / 2 2 / 3 1 / 4 7 / 5 5 / 6 4 / 8 0 
73 15 58 3 5 15 219 3 73 - * / * / + 7 3 / 0 7 / 1 1 / 2 9 / 3 2 / 4 8 / 8 5 / 9 1 2 
94 86 180 3 4 12 97 82 15 + * - + - / 10 4 / 0 3 / 1 2 / 2 9 / 3 0 / 4 7 / 5 1 / 6 6 / 7 5 / 8 8 / 9 1 4 
27 5 135 25 5 5 52 25 27 * / - + * / 5 5 / 0 7 / 4 3 / 5 1 / 7 2 / 8 0 
41 33 74 19 11 8 22 3 66 + - * - / - 8 7 / 0 6 / 1 9 / 3 2 / 4 4 / 5 3 / 7 8 / 8 1 / 9 0 
22 36 58 18 2 36 396 18 22 + * / * / - 7 2 / 0 3 / 1 6 / 2 8 / 4 5 / 5 1 / 7 9 / 8 0 
53 42 11 5 6 30 48 7 41 - * - - / + 9 2 / 0 0 / 2 5 / 3 4 / 4 3 / 5 7 / 6 8 / 7 1 / 8 6 / 9 1 0 
54 3 162 53 3 56 107 1 106 * + - + / - 8 5 / 1 2 / 2 0 / 3 7 / 4 6 / 5 1 / 6 4 / 8 3 / 9 0 
2 0 2 27 3 9 54 3 18 - / / * + * 9 8 / 0 1 / 1 5 / 2 9 / 3 3 / 4 7 / 5 0 / 6 4 / 7 2 / 9 0 
34 17 2 32 5 27 66 12 54 / - - + - * 7 7 / 1 2 / 2 4 / 3 3 / 4 1 / 5 6 / 7 5 / 9 1 1 
6 2 3 8 3 5 14 6 8 / - - + * + 7 4 / 0 6 / 2 2 / 3 5 / 4 8 / 5 3 / 6 1 / 8 1 0 
5 46 51 55 9 46 275 55 5 + - / * + - 7 9 / 0 6 / 1 2 / 3 4 / 4 5 / 6 7 / 7 1 / 9 1 4 
2 72 144 55 19 36 57 53 4 * - - + - / 8 1 / 0 5 / 3 4 / 4 6 / 5 3 / 6 7 / 7 2 / 8 9 / 9 1 9 
48 28 76 28 7 4 20 4 80 + / * - / + 6 4 / 0 2 / 2 0 / 3 7 / 4 8 / 8 6 / 9 0 
80 3 240 3 0 3 77 3 80 * - + - - / 6 8 / 1 0 / 2 7 / 4 2 / 5 3 / 6 4 / 9 1 9 
45 12 57 18 3 6 27 36 63 + / + - * + 8 4 / 0 3 / 1 7 / 2 1 / 3 8 / 4 5 / 5 6 / 6 2 / 7 1 2 
26 14 12 21 2 42 47 7 54 - * + + / + 6 4 / 0 6 / 1 7 / 3 1 / 4 5 / 5 2 / 9 1 1 
3 14 42 4 7 28 12 2 14 * * + * / - 6 2 / 0 3 / 2 7 / 3 1 / 4 4 / 5 8 / 9 0 
84 14 6 2 0 2 168 14 12 / - / * + * 6 8 / 0 1 / 4 6 / 5 2 / 6 0 / 7 4 / 8 0 
66 2 33 42 17 25 24 34 58 / - + - * + 8 3 / 0 6 / 1 1 / 2 4 / 3 2 / 5 5 / 6 8 / 7 7 / 9 1 2 
12 10 22 4 2 2 3 8 24 + / * / - + 6 8 / 0 4 / 3 2 / 5 3 / 6 1 / 7 0 / 8 0 
90 54 36 18 18 324 5 72 360 - * * / + + 10 5 / 0 3 / 1 6 / 2 9 / 3 0 / 4 1 / 5 2 / 6 4 / 7 8 / 8 7 / 9 1 8 
45 6 39 5 5 0 9 30 39 - - + / * - 6 6 / 2 5 / 4 4 / 6 3 / 7 0 / 8 9 / 9 0 
58 6 64 48 2 24 10 4 40 + / * - - - 7 6 / 0 8 / 1 1 / 2 2 / 6 4 / 7 0 / 8 5 / 9 1 8 
99 56 155 70 7 77 29 8 232 + + * - / + 9 7 / 0 6 / 1 5 / 3 8 / 4 3 / 5 2 / 6 0 / 7 1 / 8 9 / 9 1 1 
84 2 42 0 2 2 84 0 84 / + - - - * 4 2 / 1 4 / 5 0 / 6 8 / 9 0 
21 16 5 26 2 13 47 18 65 - / + + + * 8 2 / 0 1 / 1 8 / 3 4 / 5 3 / 6 6 / 7 5 / 8 7 / 9 0 
90 33 123 15 12 3 6 21 126 + - * / - + 7 9 / 0 0 / 2 2 / 3 1 / 4 5 / 5 6 / 8 3 / 9 1 5 
80 20 100 30 3 10 50 60 110 + / + - * + 7 0 / 0 8 / 2 2 / 3 1 / 5 3 / 6 6 / 8 5 / 9 1 2 
52 20 32 4 5 20 208 4 52 - * / * / + 6 2 / 0 8 / 2 3 / 3 5 / 4 4 / 8 0 / 9 1 9 
42 15 27 24 6 4 18 90 108 - / + - * * 9 1 / 0 6 / 1 7 / 2 4 / 3 2 / 4 0 / 5 8 / 7 9 / 8 5 / 9 0 
190 38 5 50 37 13 140 75 65 / - - - + * 9 9 / 0 4 / 1 3 / 3 8 / 4 6 / 5 0 / 6 5 / 7 7 / 8 1 / 9 1 0 
74 46 28 23 2 46 51 23 74 - * + - / + 8 5 / 0 2 / 2 8 / 3 1 / 4 7 / 6 6 / 7 3 / 8 4 / 9 1 7 
94 48 46 85 2 170 9 24 216 - * * - / + 9 7 / 1 2 / 2 1 / 3 5 / 4 6 / 5 0 / 6 4 / 7 9 / 8 8 / 9 1 5 
19 16 3 60 3 20 79 19 60 - / - + + * 7 6 / 1 1 / 3 0 / 4 7 / 5 2 / 6 3 / 7 9 / 8 1 6 
46 31 77 23 8 31 2 23 46 + + * / - - 7 7 / 0 4 / 3 2 / 5 1 / 6 6 / 7 3 / 8 8 / 9 1 3 
99 54 45 60 27 33 39 2 78 - - * - / + 9 6 / 0 8 / 2 2 / 3 0 / 4 4 / 5 3 / 6 7 / 7 9 / 8 5 / 9 1 4 
50 25 25 25 23 2 2 48 50 - - + / + * 6 5 / 0 0 / 1 3 / 2 8 / 5 2 / 8 4 / 9 1 2 
55 4 51 5 6 30 11 10 21 - * + / + - 7 4 / 0 0 / 2 6 / 4 3 / 5 1 / 6 2 / 7 5 / 9 0 
5 42 210 8 21 168 40 2 42 * * + * / - 7 4 / 1 5 / 2 8 / 4 2 / 5 6 / 7 0 / 8 1 / 9 1 8 
6 54 60 15 3 12 90 18 72 + - - * / + 10 9 / 0 4 / 1 0 / 2 6 / 3 8 / 4 5 / 5 2 / 6 3 / 7 7 / 8 1 / 9 1 5 
26 2 13 56 46 10 82 48 130 / - + + + * 8 8 / 0 2 / 1 1 / 2 4 / 4 5 / 5 6 / 7 0 / 8 3 / 9 1 2 
6 27 162 81 9 72 87 3 90 * - + + / - 8 6 / 1 7 / 2 1 / 3 2 / 4 8 / 5 9 / 6 0 / 8 3 / 9 1 3 
88 2 90 46 23 2 42 46 88 + / + - * - 7 3 / 0 4 / 1 9 / 2 0 / 5 8 / 6 2 / 7 6 / 9 1 9 
5 36 41 14 3 17 70 12 58 + + - * / + 9 1 / 0 4 / 1 8 / 2 0 / 3 5 / 4 6 / 5 3 / 6 2 / 7 7 / 9 1 9 
50 50 1 8 2 16 42 25 17 / * - - / + 8 0 / 0 6 / 1 7 / 2 4 / 3 1 / 5 5 / 6 2 / 8 8 / 9 0 
70 15 55 3 5 15 67 3 70 - * + - / + 6 0 / 3 7 / 5 1 / 6 6 / 7 5 / 8 3 / 9 1 6 
54 27 81 2 27 54 27 0 27 + * - / - - 7 8 / 0 7 / 1 0 / 2 1 / 4 4 / 5 5 / 8 2 / 9 1 5 
19 24 43 16 2 8 3 48 51 + / + - * + 8 3 / 1 8 / 2 4 / 3 5 / 4 2 / 6 1 / 7 9 / 8 6 / 9 1 1 
68 2 34 67 34 33 135 68 67 / - - + * + 8 5 / 1 3 / 2 2 / 3 6 / 5 8 / 6 1 / 7 7 / 8 4 / 9 1 5 
76 19 4 16 5 21 60 24 84 / + + - + * 9 6 / 1 7 / 2 4 / 3 1 / 4 9 / 5 0 / 6 2 / 7 5 / 8 8 / 9 1 4 
2 23 46 40 17 23 80 40 2 * - / * + / 8 0 / 0 1 / 2 2 / 3 8 / 4 7 / 6 3 / 7 4 / 8 6 / 9 1 0 
28 15 13 4 3 12 7 18 25 - * + / + + 7 3 / 0 1 / 1 4 / 2 8 / 3 2 / 5 7 / 8 5 / 9 1 1 
61 2 122 29 29 1 90 31 121 * / + + + - 6 0 / 0 2 / 1 6 / 2 1 / 6 9 / 7 3 / 8 1 7 
30 18 12 27 3 9 57 54 3 - / - + * - 9 9 / 1 1 / 2 0 / 3 4 / 4 2 / 5 7 / 6 3 / 7 5 / 8 8 / 9 1 5 
9 88 97 22 11 2 198 99 99 + / - * + + 5 1 / 2 8 / 3 9 / 4 7 / 6 2 / 7 0 
50 42 8 64 8 8 114 50 64 - / - + + * 7 4 / 1 0 / 2 8 / 3 1 / 4 5 / 5 6 / 7 2 / 9 0 
12 84 96 27 3 24 324 81 4 + - / * - / 8 3 / 0 7 / 1 6 / 2 4 / 3 2 / 6 9 / 7 8 / 8 1 / 9 1 6 
47 8 376 24 16 8 23 24 47 * - + - + / 7 2 / 0 4 / 1 8 / 2 3 / 3 7 / 4 1 / 5 6 / 7 1 3 
116 20 96 58 2 60 2 18 36 - + * / - - 8 0 / 0 9 / 1 3 / 2 6 / 3 8 / 4 2 / 5 5 / 7 1 / 8 1 4 
2 68 136 44 22 2 88 46 134 * / + * - - 6 2 / 0 1 / 2 3 / 3 4 / 4 8 / 6 6 / 8 0 
2 2 4 40 20 2 80 40 2 + / / * * - 4 2 / 1 4 / 4 0 / 6 8 / 8 0 
45 15 60 15 0 15 3 15 45 + - * / + - 6 6 / 0 5 / 1 1 / 3 4 / 4 0 / 6 3 / 7 0 
165 5 33 31 3 93 134 8 126 / * - - + + 8 2 / 0 9 / 1 6 / 2 5 / 3 3 / 4 8 / 5 4 / 6 1 / 7 1 2 
72 28 100 42 2 84 30 14 16 + * - - / - 8 0 / 1 3 / 2 2 / 3 1 / 4 4 / 5 8 / 7 7 / 8 6 / 9 2 2 9
72 28 100 42 2 84 30 14 16 + * - - / - 8 0 / 1 3 / 2 2 / 3 1 / 4 4 / 5 8 / 7 7 / 8 6 / 9 2 2 9
72 28 100 42 2 84 30 14 16 + * - - / - 8 0 / 1 3 / 2 2 / 3 1 / 4 4 / 5 8 / 7 7 / 8 6 / 9 2 2 9
72 28 100 42 2 84 30 14 16 + * - - / - 8 0 / 1 3 / 2 2 / 3 1 / 4 4 / 5 8 / 7 7 / 8 6 / 9 2 2 9
72 28 100 42 2 84 30 14 16 + * - - / - 8 0 / 1 3 / 2 2 / 3 1 / 4 4 / 5 8 / 7 7 / 8 6 / 9 2 2 9
72 28 100 42 2 84 30 14 16 + * - - / - 8 0 / 1 3 / 2 2 / 3 1 / 4 4 / 5 8 / 7 7 / 8 6 / 9 2 2 9
72 28 100 42 2 84 30 14 16 + * - - / - 8 0 / 1 3 / 2 2 / 3 1 / 4 4 / 5 8 / 7 7 / 8 6 / 9 2 2 9
72 28 100 42 2 84 30 14 16 + * - - / - 8 0 / 1 3 / 2 2 / 3 1 / 4 4 / 5 8 / 7 7 / 8 6 / 9 2 2 9
72 28 100 42 2 84 30 14 16 + * - - / - 8 0 / 1 3 / 2 2 / 3 1 / 4 4 / 5 8 / 7 7 / 8 6 / 9 2 2 9
72 28 100 42 2 84 30 14 16 + * - - / - 8 0 / 1 3 / 2 2 / 3 1 / 4 4 / 5 8 / 7 7 / 8 6 / 9 2 2 9
72 28 100 42 2 84 30 14 16 + * - - / - 8 0 / 1 3 / 2 2 / 3 1 / 4 4 / 5 8 / 7 7 / 8 6 / 9 2 2 9
72 28 100 42 2 84 30 14 16 + * - - / - 8 0 / 1 3 / 2 2 / 3 1 / 4 4 / 5 8 / 7 7 / 8 6 / 9 2 2 9
72 28 100 42 2 84 30 14 16 + * - - / - 8 0 / 1 3 / 2 2 / 3 1 / 4 4 / 5 8 / 7 7 / 8 6 / 9 2 2 9
72 28 100 42 2 84 30 14 16 + * - - / - 8 0 / 1 3 / 2 2 / 3 1 / 4 4 / 5 8 / 7 7 / 8 6 / 9 2 2 9
72 28 100 42 2 84 30 14 16 + * - - / - 8 0 / 1 3 / 2 2 / 3 1 / 4 4 / 5 8 / 7 7 / 8 6 / 9 2 2 9
72 28 100 42 2 84 30 14 16 + * - - / - 8 0 / 1 3 / 2 2 / 3 1 / 4 4 / 5 8 / 7 7 / 8 6 / 9 2 2 9
72 28 100 42 2 84 30 14 16 + * - - / - 8 0 / 1 3 / 2 2 / 3 1 / 4 4 / 5 8 / 7 7 / 8 6 / 9 2 2 9
72 28 100 42 2 84 30 14 16 + * - - / - 8 0 / 1 3 / 2 2 / 3 1 / 4 4 / 5 8 / 7 7 / 8 6 / 9 2 2 9
72 28 100 42 2 84 30 14 16 + * - - / - 8 0 / 1 3 / 2 2 / 3 1 / 4 4 / 5 8 / 7 7 / 8 6 / 9 2 2 9
72 28 100 42 2 84 30 14 16 + * - - / - 8 0 / 1 3 / 2 2 / 3 1 / 4 4 / 5 8 / 7 7 / 8 6 / 9 2 2 9
72 28 100 42 2 84 30 14 16 + * - - / - 8 0 / 1 3 / 2 2 / 3 1 / 4 4 / 5 8 / 7 7 / 8 6 / 9 2 2 9
72 28 100 42 2 84 30 14 16 + * - - / - 8 0 / 1 3 / 2 2 / 3 1 / 4 4 / 5 8 / 7 7 / 8 6 / 9 2 2 9
72 28 100 42 2 84 30 14 16 + * - - / - 8 0 / 1 3 / 2 2 / 3 1 / 4 4 / 5 8 / 7 7 / 8 6 / 9 2 2 9
72 28 100 42 2 84 30 14 16 + * - - / - 8 0 / 1 3 / 2 2 / 3 1 / 4 4 / 5 8 / 7 7 / 8 6 / 9 2 2 9
72 28 100 42 2 84 30 14 16 + * - - / - 8 0 / 1 3 / 2 2 / 3 1 / 4 4 / 5 8 / 7 7 / 8 6 / 9 2 2 9
72 28 100 42 2 84 30 14 16 + * - - / - 8 0 / 1 3 / 2 2 / 3 1 / 4 4 / 5 8 / 7 7 / 8 6 / 9 2 2 9
72 28 100 42 2 84 30 14 16 + * - - / - 8 0 / 1 3 / 2 2 / 3 1 / 4 4 / 5 8 / 7 7 / 8 6 / 9 2 2 9
72 28 100 42 2 84 30 14 16 + * - - / - 8 0 / 1 3 / 2 2 / 3 1 / 4 4 / 5 8 / 7 7 / 8 6 / 9 2 2 9
72 28 100 42 2 84 30 14 16 + * - - / - 8 0 / 1 3 / 2 2 / 3 1 / 4 4 / 5 8 / 7 7 / 8 6 / 9 2 2 9
72 28 100 42 2 84 30 14 16 + * - - / - 8 0 / 1 3 / 2 2 / 3 1 / 4 4 / 5 8 / 7 7 / 8 6 / 9 2 2 9
72 28 100 42 2 84 30 14 16 + * - - / - 8 0 / 1 3 / 2 2 / 3 1 / 4 4 / 5 8 / 7 7 / 8 6 / 9 2 2 9
72 28 100 42 2 84 30 14 16 + * - - / - 8 0 / 1 3 / 2 2 / 3 1 / 4 4 / 5 8 / 7 7 / 8 6 / 9 2 2 9
72 28 100 42 2 84 30 14 16 + * - - / - 8 0 / 1 3 / 2 2 / 3 1 / 4 4 / 5 8 / 7 7 / 8 6 / 9 2 2 9
72 28 100 42 2 84 30 14 16 + * - - / - 8 0 / 1 3 / 2 2 / 3 1 / 4 4 / 5 8 / 7 7 / 8 6 / 9 2 2 9
72 28 100 42 2 84 30 14 16 + * - - / - 8 0 / 1 3 / 2 2 / 3 1 / 4 4 / 5 8 / 7 7 / 8 6 / 9 2 2 9
72 28 100 42 2 84 30 14 16 + * - - / - 8 0 / 1 3 / 2 2 / 3 1 / 4 4 / 5 8 / 7 7 / 8 6 / 9 2 2 9
72 28 100 42 2 84 30 14 16 + * - - / - 8 0 / 1 3 / 2 2 / 3 1 / 4 4 / 5 8 / 7 7 / 8 6 / 9 2 2 9
72 28 100 42 2 84 30 14 16 + * - - / - 8 0 / 1 3 / 2 2 / 3 1 / 4 4 / 5 8 / 7 7 / 8 6 / 9 2 2 9
72 28 100 42 2 84 30 14 16 + * - - / - 8 0 / 1 3 / 2 2 / 3 1 / 4 4 / 5 8 / 7 7 / 8 6 / 9 2 2 9
72 28 100 42 2 84 30 14 16 + * - - / - 8 0 / 1 3 / 2 2 / 3 1 / 4 4 / 5 8 / 7 7 / 8 6 / 9 2 2 9
72 28 100 42 2 84 30 14 16 + * - - / - 8 0 / 1 3 / 2 2 / 3 1 / 4 4 / 5 8 / 7 7 / 8 6 / 9 2 2 9
72 28 100 42 2 84 30 14 16 + * - - / - 8 0 / 1 3 / 2 2 / 3 1 / 4 4 / 5 8 / 7 7 / 8 6 / 9 2 2 9
72 28 100 42 2 84 30 14 16 + * - - / - 8 0 / 1 3 / 2 2 / 3 1 / 4 4 / 5 8 / 7 7 / 8 6 / 9 2 2 9
72 28 100 42 2 84 30 14 16 + * - - / - 8 0 / 1 3 / 2 2 / 3 1 / 4 4 / 5 8 / 7 7 / 8 6 / 9 2 2 9
72 28 100 42 2 84 30 14 16 + * - - / - 8 0 / 1 3 / 2 2 / 3 1 / 4 4 / 5 8 / 7 7 / 8 6 / 9 2 2 9
72 28 100 42 2 84 30 14 16 + * - - / - 8 0 / 1 3 / 2 2 / 3 1 / 4 4 / 5 8 / 7 7 / 8 6 / 9 2 2 9
72 28 100 42 2 84 30 14 16 + * - - / - 8 0 / 1 3 / 2 2 / 3 1 / 4 4 / 5 8 / 7 7 / 8 6 / 9 2 2 9
72 28 100 42 2 84 30 14 16 + * - - / - 8 0 / 1 3 / 2 2 / 3 1 / 4 4 / 5 8 / 7 7 / 8 6 / 9 2 2 9
72 28 100 42 2 84 30 14 16 + * - - / - 8 0 / 1 3 / 2 2 / 3 1 / 4 4 / 5 8 / 7 7 / 8 6 / 9 2 2 9
72 28 100 42 2 84 30 14 16 + * - - / - 8 0 / 1 3 / 2 2 / 3 1 / 4 4 / 5 8 / 7 7 / 8 6 / 9 2 2 9
72 28 100 42 2 84 30 14 16 + * - - / - 8 0 / 1 3 / 2 2 / 3 1 / 4 4 / 5 8 / 7 7 / 8 6 / 9 2 2 9
72 28 100 42 2 84 30 14 16 + * - - / - 8 0 / 1 3 / 2 2 / 3 1 / 4 4 / 5 8 / 7 7 / 8 6 / 9 2 2 9
72 28 100 42 2 84 30 14 16 + * - - / - 8 0 / 1 3 / 2 2 / 3 1 / 4 4 / 5 8 / 7 7 / 8 6 / 9 2 2 9
72 28 100 42 2 84 30 14 16 + * - - / - 8 0 / 1 3 / 2 2 / 3 1 / 4 4 / 5 8 / 7 7 / 8 6 / 9 2 2 9
72 28 100 42 2 84 30 14 16 + * - - / - 8 0 / 1 3 / 2 2 / 3 1 / 4 4 / 5 8 / 7 7 / 8 6 / 9 2 2 9
72 28 100 42 2 84 30 14 16 + * - - / - 8 0 / 1 3 / 2 2 / 3 1 / 4 4 / 5 8 / 7 7 / 8 6 / 9 2 2 9
72 28 100 42 2 84 30 14 16 + * - - / - 8 0 / 1 3 / 2 2 / 3 1 / 4 4 / 5 8 / 7 7 / 8 6 / 9 2 2 9
72 28 100 42 2 84 30 14 16 + * - - / - 8 0 / 1 3 / 2 2 / 3 1 / 4 4 / 5 8 / 7 7 / 8 6 / 9 2 2 9
72 28 100 42 2 84 30 14 16 + * - - / - 8 0 / 1 3 / 2 2 / 3 1 / 4 4 / 5 8 / 7 7 / 8 6 / 9 2 2 9
72 28 100 42 2 84 30 14 16 + * - - / - 8 0 / 1 3 / 2 2 / 3 1 / 4 4 / 5 8 / 7 7 / 8 6 / 9 2 2 9
72 28 100 42 2 84 30 14 16 + * - - / - 8 0 / 1 3 / 2 2 / 3 1 / 4 4 / 5 8 / 7 7 / 8 6 / 9 2 2 9
72 28 100 42 2 84 30 14 16 + * - - / - 8 0 / 1 3 / 2 2 / 3 1 / 4 4 / 5 8 / 7 7 / 8 6 / 9 2 2 9
72 28 100 42 2 84 30 14 16 + * - - / - 8 0 / 1 3 / 2 2 / 3 1 / 4 4 / 5 8 / 7 7 / 8 6 / 9 2 2 9
72 28 100 42 2 84 30 14 16 + * - - / - 8 0 / 1 3 / 2 2 / 3 1 / 4 4 / 5 8 / 7 7 / 8 6 / 9 2 2 9
72 28 100 42 2 84 30 14 16 + * - - / - 8 0 / 1 3 / 2 2 / 3 1 / 4 4 / 5 8 / 7 7 / 8 6 / 9 2 2 9
72 28 100 42 2 84 30 14 16 + * - - / - 8 0 / 1 3 / 2 2 / 3 1 / 4 4 / 5 8 / 7 7 / 8 6 / 9 2 2 9
72 28 100 42 2 84 30 14 16 + * - - / - 8 0 / 1 3 / 2 2 / 3 1 / 4 4 / 5 8 / 7 7 / 8 6 / 9 2 2 9
72 28 100 42 2 84 30 14 16 + * - - / - 8 0 / 1 3 / 2 2 / 3 1 / 4 4 / 5 8 / 7 7 / 8 6 / 9 2 2 9
72 28 100 42 2 84 30 14 16 + * - - / - 8 0 / 1 3 / 2 2 / 3 1 / 4 4 / 5 8 / 7 7 / 8 6 / 9 2 2 9
72 28 100 42 2 84 30 14 16 + * - - / - 8 0 / 1 3 / 2 2 / 3 1 / 4 4 / 5 8 / 7 7 / 8 6 / 9 2 2 9
72 28 100 42 2 84 30 14 16 + * - - / - 8 0 / 1 3 / 2 2 / 3 1 / 4 4 / 5 8 / 7 7 / 8 6 / 9 2 2 9
72 28 100 42 2 84 30 14 16 + * - - / - 8 0 / 1 3 / 2 2 / 3 1 / 4 4 / 5 8 / 7 7 / 8 6 / 9 2 2 9
72 28 100 42 2 84 30 14 16 + * - - / - 8 0 / 1 3 / 2 2 / 3 1 / 4 4 / 5 8 / 7 7 / 8 6 / 9 2 2 9
72 28 100 42 2 84 30 14 16 + * - - / - 8 0 / 1 3 / 2 2 / 3 1 / 4 4 / 5 8 / 7 7 / 8 6 / 9 2 2 9
72 28 100 42 2 84 30 14 16 + * - - / - 8 0 / 1 3 / 2 2 / 3 1 / 4 4 / 5 8 / 7 7 / 8 6 / 9 2 2 9
72 28 100 42 2 84 30 14 16 + * - - / - 8 0 / 1 3 / 2 2 / 3 1 / 4 4 / 5 8 / 7 7 / 8 6 / 9 2 2 9
72 28 100 42 2 84 30 14 16 + * - - / - 8 0 / 1 3 / 2 2 / 3 1 / 4 4 / 5 8 / 7 7 / 8 6 / 9 2 2 9
72 28 100 42 2 84 30 14 16 + * - - / - 8 0 / 1 3 / 2 2 / 3 1 / 4 4 / 5 8 / 7 7 / 8 6 / 9 2 2 9
72 28 100 42 2 84 30 14 16 + * - - / - 8 0 / 1 3 / 2 2 / 3 1 / 4 4 / 5 8 / 7 7 / 8 6 / 9 2 2 9
72 28 100 42 2 84 30 14 16 + * - - / - 8 0 / 1 3 / 2 2 / 3 1 / 4 4 / 5 8 / 7 7 / 8 6 / 9 2 2 9
72 28 100 42 2 84 30 14 16 + * - - / - 8 0 / 1 3 / 2 2 / 3 1 / 4 4 / 5 8 / 7 7 / 8 6 / 9 2 2 9
72 28 100 42 2 84 30 14 16 + * - - / - 8 0 / 1 3 / 2 2 / 3 1 / 4 4 / 5 8 / 7 7 / 8 6 / 9 2 2 9
72 28 100 42 2 84 30 14 16 + * - - / - 8 0 / 1 3 / 2 2 / 3 1 / 4 4 / 5 8 / 7 7 / 8 6 / 9 2 2 9
72 28 100 42 2 84 30 14 16 + * - - / - 8 0 / 1 3 / 2 2 / 3 1 / 4 4 / 5 8 / 7 7 / 8 6 / 9 2 2 9
72 28 100 42 2 84 30 14 16 + * - - / - 8 0 / 1 3 / 2 2 / 3 1 / 4 4 / 5 8 / 7 7 / 8 6 / 9 2 2 9
72 28 100 42 2 84 30 14 16 + * - - / - 8 0 / 1 3 / 2 2 / 3 1 / 4 4 / 5 8 / 7 7 / 8 6 / 9 2 2 9
72 28 100 42 2 84 30 14 16 + * - - / - 8 0 / 1 3 / 2 2 / 3 1 / 4 4 / 5 8 / 7 7 / 8 6 / 9 2 2 9
72 28 100 42 2 84 30 14 16 + * - - / - 8 0 / 1 3 / 2 2 / 3 1 / 4 4 / 5 8 / 7 7 / 8 6 / 9 2 2 9
72 28 100 42 2 84 30 14 16 + * - - / - 8 0 / 1 3 / 2 2 / 3 1 / 4 4 / 5 8 / 7 7 / 8 6 / 9 2 2 9
72 28 100 42 2 84 30 14 16 + * - - / - 8 0 / 1 3 / 2 2 / 3 1 / 4 4 / 5 8 / 7 7 / 8 6 / 9 2 2 9
72 28 100 42 2 84 30 14 16 + * - - / - 8 0 / 1 3 / 2 2 / 3 1 / 4 4 / 5 8 / 7 7 / 8 6 / 9 2 2 9
72 28 100 42 2 84 30 14 16 + * - - / - 8 0 / 1 3 / 2 2 / 3 1 / 4 4 / 5 8 / 7 7 / 8 6 / 9 2 2 9
72 28 100 42 2 84 30 14 16 + * - - / - 8 0 / 1 3 / 2 2 / 3 1 / 4 4 / 5 8 / 7 7 / 8 6 / 9 2 2 9
72 28 100 42 2 84 30 14 16 + * - - / - 8 0 / 1 3 / 2 2 / 3 1 / 4 4 / 5 8 / 7 7 / 8 6 / 9 2 2 9
72 28 100 42 2 84 30 14 16 + * - - / - 8 0 / 1 3 / 2 2 / 3 1 / 4 4 / 5 8 / 7 7 / 8 6 / 9 2 2 9
72 28 100 42 2 84 30 14 16 + * - - / - 8 0 / 1 3 / 2 2 / 3 1 / 4 4 / 5 8 / 7 7 / 8 6 / 9 2 2 9
72 28 100 42 2 84 30 14 16 + * - - / - 8 0 / 1 3 / 2 2 / 3 1 / 4 4 / 5 8 / 7 7 / 8 6 / 9 2 2 9
72 28 100 42 2 84 30 14 16 + * - - / - 8 0 / 1 3 / 2 2 / 3 1 / 4 4 / 5 8 / 7 7 / 8 6 / 9 2 2 9
72 28 100 42 2 84 30 14 16 + * - - / - 8 0 / 1 3 / 2 2 / 3 1 / 4 4 / 5 8 / 7 7 / 8 6 / 9 2 2 9
72 28 100 42 2 84 30 14 16 + * - - / - 8 0 / 1 3 / 2 2 / 3 1 / 4 4 / 5 8 / 7 7 / 8 6 / 9 2 2 9
72 28 100 42 2 84 30 14 16 + * - - / - 8 0 / 1 3 / 2 2 / 3 1 / 4 4 / 5 8 / 7 7 / 8 6 / 9 2 2 9
72 28 100 42 2 84 30 14 16 + * - - / - 8 0 / 1 3 / 2 2 / 3 1 / 4 4 / 5 8 / 7 7 / 8 6 / 9 2 2 9
72 28 100 42 2 84 30 14 16 + * - - / - 8 0 / 1 3 / 2 2 / 3 1 / 4 4 / 5 8 / 7 7 / 8 6 / 9 2 2 9
72 28 100 42 2 84 30 14 16 + * - - / - 8 0 / 1 3 / 2 2 / 3 1 / 4 4 / 5 8 / 7 7 / 8 6 / 9 2 2 9
72 28 100 42 2 84 30 14 16 + * - - / - 8 0 / 1 3 / 2 2 / 3 1 / 4 4 / 5 8 / 7 7 / 8 6 / 9 2 2 9
72 28 100 42 2 84 30 14 16 + * - - / - 8 0 / 1 3 / 2 2 / 3 1 / 4 4 / 5 8 / 7 7 / 8 6 / 9 2 2 9
72 28 100 42 2 84 30 14 16 + * - - / - 8 0 / 1 3 / 2 2 / 3 1 / 4 4 / 5 8 / 7 7 / 8 6 / 9 2 2 9
72 28 100 42 2 84 30 14 16 + * - - / - 8 0 / 1 3 / 2 2 / 3 1 / 4 4 / 5 8 / 7 7 / 8 6 / 9 2 2 9
72 28 100 42 2 84 30 14 16 + * - - / - 8 0 / 1 3 / 2 2 / 3 1 / 4 4 / 5 8 / 7 7 / 8 6 / 9 2 2 9
72 28 100 42 2 84 30 14 16 + * - - / - 8 0 / 1 3 / 2 2 / 3 1 / 4 4 / 5 8 / 7 7 / 8 6 / 9 2 2 9